…
In our dataset, **30 users** met fairly active minutes or very active
minutes.

``` r
active_users <- daily_activity %>% 
  filter(FairlyActiveMinutes >= 21.4 | VeryActiveMinutes>= 10.7) %>% 
  group_by(Id) %>% 
  count(Id)

active_users
```

    ## # A tibble: 30 × 2
    ## # Groups:   Id [30]
    ##            Id     n
    ##         <dbl> <int>
    ##  1 1503960366    30
    ##  2 1624580081     6
    ##  3 1644430081    16
    ##  4 1927972279     2
    ##  5 2022484408    28
    ##  6 2320127002     2
    ##  7 2347167796    12
    ##  8 2873212765    11
    ##  9 3372868164    11
    ## 10 3977333714    27
    ## # ℹ 20 more rows
…
